<svg xmlns="http://www.w3.org/2000/svg" width="254px" height="50px" viewBox="0 0 254 50">
	<style type="text/css">
		.st0{fill:#FFFFFF;}
		.st1{fill:url(#SVGID_1_);}
		.st2{fill:url(#SVGID_2_);}
		.st3{fill:url(#SVGID_3_);}
		.st4{fill:url(#SVGID_4_);}
		.st5{fill:url(#SVGID_5_);}
		.st6{fill:url(#SVGID_6_);}
	</style>
	<g>
		<path class="st0" d="M97.6,10L82.3,25.9l16.6,16.9v0.3h-6.7L77.4,27.9v15.2h-5.3V9.8h5.3v14.4L90.9,9.8h6.6L97.6,10L97.6,10z"/>
		<path class="st0" d="M127.2,9.8v28.3h17.5V43h-22.9V9.7h5.4V9.8z"/>
		<path class="st0" d="M200,26.6c0,9-5.5,17.2-17,17.2c-11.6,0-17-8.4-17-17.2c0-10.1,7.1-17.4,17.1-17.4
			C194.4,9.2,200,17.6,200,26.6z M182.9,38.9c8.3,0,11.7-5.8,11.7-12.2c0-6.1-3.5-12.5-11.6-12.6c-7.7,0-11.8,5.4-11.8,12.6
			C171.3,32.6,174.7,38.9,182.9,38.9z"/>
		<path class="st0" d="M248.2,33.5V9.8h5.3v33.3h-4l-18.9-23.5v23.5h-5.4V9.8h4.1L248.2,33.5z"/>
	</g>
	<g>
			<linearGradient id="SVGID_1_" gradientUnits="userSpaceOnUse" x1="-68.6157" y1="-37.9253" x2="26.8834" y2="64.2796" gradientTransform="matrix(1 0 0 -1 0 50)">
			<stop  offset="0" style="stop-color:#00074D"/>
			<stop  offset="1" style="stop-color:#143DA1"/>
		</linearGradient>
		<circle class="st1" cx="7" cy="7" r="7"/>

			<linearGradient id="SVGID_2_" gradientUnits="userSpaceOnUse" x1="-50.5574" y1="-54.7989" x2="44.9418" y2="47.406" gradientTransform="matrix(1 0 0 -1 0 50)">
			<stop  offset="0" style="stop-color:#00074D"/>
			<stop  offset="1" style="stop-color:#143DA1"/>
		</linearGradient>
		<circle class="st2" cx="7" cy="43.2" r="7"/>

			<linearGradient id="SVGID_3_" gradientUnits="userSpaceOnUse" x1="-43.2383" y1="-61.6378" x2="52.2609" y2="40.5672" gradientTransform="matrix(1 0 0 -1 0 50)">
			<stop  offset="0" style="stop-color:#00074D"/>
			<stop  offset="1" style="stop-color:#143DA1"/>
		</linearGradient>
		<path class="st3" d="M39.1,35.5c-1.8-0.2-3.4-0.8-4.9-1.6c-2.9-1.8-4.9-5.1-4.9-8.8c0-4.1,2.4-7.7,5.9-9.3l0,0
			c1.2-0.5,2.4-0.9,3.7-1c1.7-0.1,3.3-0.9,4.6-2.1c3-3,2.9-8-0.4-10.9c-2.8-2.4-7-2.4-9.8,0c-1.4,1.3-2.2,2.9-2.4,4.7
			c0,0.4-0.1,0.7-0.2,1.1c-0.2,5.5-4.6,9.9-10,10c-0.4,0.1-0.7,0.1-1.1,0.2c-0.1,0-0.1,0-0.2,0c-0.2,0-0.3,0.1-0.5,0.1
			c-0.3,0.1-0.5,0.1-0.8,0.2c-0.2,0.1-0.4,0.1-0.5,0.2c-0.2,0.1-0.4,0.2-0.6,0.3s-0.4,0.2-0.6,0.4c-0.2,0.1-0.4,0.3-0.6,0.4
			c-0.1,0-0.1,0.1-0.2,0.1c-0.1,0.1-0.2,0.2-0.3,0.3c-0.1,0.1-0.3,0.3-0.4,0.4c-0.1,0.1-0.1,0.2-0.2,0.3c-0.1,0.2-0.2,0.3-0.4,0.5
			c-0.2,0.2-0.3,0.5-0.4,0.7s-0.2,0.4-0.3,0.6c-0.1,0.2-0.2,0.5-0.2,0.7c-0.1,0.2-0.1,0.4-0.2,0.7c0,0.2-0.1,0.5-0.1,0.7
			S13,24.9,13,25.1s0,0.5,0,0.7c0,0.3,0.1,0.6,0.1,0.9c0.1,0.4,0.2,0.7,0.3,1c0.1,0.2,0.1,0.3,0.2,0.5c0.1,0.3,0.3,0.6,0.4,0.8
			s0.2,0.3,0.3,0.4c0.1,0.2,0.2,0.4,0.4,0.5c0.1,0.1,0.1,0.1,0.2,0.2c0.1,0.1,0.1,0.1,0.2,0.2c0.2,0.2,0.4,0.3,0.5,0.4
			c0.1,0.1,0.2,0.2,0.4,0.3c0.3,0.2,0.7,0.5,1.1,0.6c0.1,0,0.1,0.1,0.2,0.1c0.4,0.2,0.9,0.3,1.3,0.5c0.1,0,0.3,0,0.4,0.1
			c0.2,0,0.5,0.1,0.7,0.1c0.8,0.1,1.6,0.2,2.4,0.5c4.6,0.8,8.1,4.7,8.5,9.4c0.1,0.4,0.1,0.8,0.2,1.2c0.1,1.7,0.9,3.3,2.1,4.6
			c3,3,8,2.9,10.9-0.4c2.4-2.8,2.4-7-0.1-9.8C42.5,36.5,40.9,35.7,39.1,35.5z"/>
	</g>
</svg>
